{
    "trigger": true,
    "modules": [
        "auto-confirm-user"
    ],
    "parentResource": "airbnbanalytics7a52f096",
    "functionName": "airbnbanalyticsAuthPreSignup",
    "parentStack": "auth",
    "triggerEnvs": "[]",
    "triggerDir": "/usr/local/Cellar/node/12.9.0/lib/node_modules/@aws-amplify/cli/node_modules/amplify-category-auth/provider-utils/awscloudformation/utils/../triggers/PreSignup",
    "roleName": "airbnbanalyticsAuthPreSignup",
    "triggerTemplate": "PreSignup.json.ejs",
    "triggerEventPath": "PreSignup.event.json",
    "skipEdit": true,
    "resourceName": "airbnbanalyticsAuthPreSignup"
}