{
    "trigger": true,
    "modules": [
        "verification-link"
    ],
    "parentResource": "airbnbanalytics7a52f096",
    "functionName": "airbnbanalytics7a52f096CustomMessage",
    "parentStack": "auth",
    "triggerEnvs": "[{\"key\":\"RESOURCENAME\",\"value\":\"resourceName\"}]",
    "triggerDir": "/usr/local/Cellar/node/12.9.0/lib/node_modules/@aws-amplify/cli/node_modules/amplify-category-auth/provider-utils/awscloudformation/utils/../triggers/CustomMessage",
    "roleName": "airbnbanalytics7a52f096CustomMessage",
    "triggerTemplate": "CustomMessage.json.ejs",
    "triggerEventPath": "CustomMessage.event.json",
    "skipEdit": true,
    "resourceName": "airbnbanalytics7a52f096CustomMessage"
}