{
    "paths": [
        {
            "name": "/listings",
            "lambdaFunction": "airbnbAnalyticsApi",
            "privacy": {
                "private": true,
                "auth": [
                    "/POST",
                    "/GET",
                    "/PUT",
                    "/PATCH",
                    "/DELETE"
                ]
            }
        },
        {
            "name": "/subscription",
            "lambdaFunction": "airbnbAnalyticsApi",
            "privacy": {
                "protected": true,
                "auth": [
                    "/POST",
                    "/GET",
                    "/PUT",
                    "/PATCH",
                    "/DELETE"
                ],
                "unauth": [
                    "/POST"
                ]
            }
        },
        {
            "name": "/users",
            "lambdaFunction": "airbnbAnalyticsApi",
            "privacy": {
                "protected": true,
                "auth": [
                    "/POST",
                    "/GET",
                    "/PUT",
                    "/PATCH",
                    "/DELETE"
                ],
                "unauth": [
                    "/POST"
                ]
            }
        }
    ],
    "resourceName": "airbnbAnalyticsApi",
    "apiName": "airbnbAnalyticsApi",
    "functionArns": [
        {
            "lambdaFunction": "airbnbAnalyticsApi"
        }
    ],
    "privacy": {
        "auth": 3,
        "unauth": 2,
        "authRoleName": "amplify-airbnb-analytics-dev-170133-authRole",
        "unAuthRoleName": "amplify-airbnb-analytics-dev-170133-unauthRole"
    },
    "dependsOn": [
        {
            "category": "function",
            "resourceName": "airbnbAnalyticsApi",
            "attributes": [
                "Name",
                "Arn"
            ]
        }
    ],
    "uuid": "6531051b"
}