{
    "trigger": true,
    "modules": [
        "add-to-group"
    ],
    "parentResource": "airbnbanalytics7a52f096",
    "functionName": "airbnbanalytics7a52f096PostConfirmation",
    "parentStack": "auth",
    "triggerEnvs": "[]",
    "triggerDir": "/usr/local/Cellar/node/12.9.0/lib/node_modules/@aws-amplify/cli/node_modules/amplify-category-auth/provider-utils/awscloudformation/utils/../triggers/PostConfirmation",
    "roleName": "airbnbanalytics7a52f096PostConfirmation",
    "triggerTemplate": "PostConfirmation.json.ejs",
    "triggerEventPath": "PostConfirmation.event.json",
    "skipEdit": true,
    "resourceName": "airbnbanalytics7a52f096PostConfirmation"
}